lab4/part3/filter/iverilog.log
testbench.cg with cycle_time_p          10
VCD info: dumpfile iverilog.vcd opened for output.
VCD warning: $dumpvars: Unsupported argument type (vpiPackage)

  ______          __  __                    __       _____ ____           
 /_  __/__  _____/ /_/ /_  ___  ____  _____/ /_     / __(_) / /____  _____
  / / / _ \/ ___/ __/ __ \/ _ \/ __ \/ ___/ __ \   / /_/ / / __/ _ \/ ___/
 / / /  __(__  ) /_/ /_/ /  __/ / / / /__/ / / /  / __/ / / /_/  __/ /    
/_/  \___/____/\__/_.___/\___/_/ /_/\___/_/ /_/  /_/ /_/_/\__/\___/_/     
__________ ___________  _______________________________
\______   \\_   _____/ /   _____/\_   _____/\__    ___/
 |       _/ |    __)_  \_____  \  |    __)_   |    |   
 |    |   \ |        \ /        \ |        \  |    |  0->1 time =         10
 |____|_  //_______  //_______  //_______  /  |____|   
 ASYNC  \/         \/         \/         \/            
__________ ___________  _______________________________
\______   \\_   _____/ /   _____/\_   _____/\__    ___/
 |       _/ |    __)_  \_____  \  |    __)_   |    |   
 |    |   \ |        \ /        \ |        \  |    |  1->0 time =        110
 |____|_  //_______  //_______  //_______  /  |____|   
 ASYNC  \/         \/         \/         \/            

Begin Test:
On Cycle           1 (RV: b1200062) -- valid_i: 1, yumi_i: 0
On Cycle           2 (RV: 748abbe9) -- valid_i: 0, yumi_i: 0
On Cycle           3 (RV: 1747832e) -- valid_i: 0, yumi_i: 0
On Cycle           4 (RV: c690128d) -- valid_i: 0, yumi_i: 0
On Cycle           5 (RV: 632f07c6) -- valid_i: 0, yumi_i: 0
On Cycle           6 (RV: d51cb4aa) -- valid_i: 0, yumi_i: 0
On Cycle           7 (RV: d01df0a0) -- valid_i: 1, yumi_i: 1
On Cycle           8 (RV: 1be8cf37) -- valid_i: 0, yumi_i: 0
On Cycle           9 (RV: f8602ef0) -- valid_i: 1, yumi_i: 1
On Cycle          10 (RV: f46ca8e8) -- valid_i: 1, yumi_i: 1
On Cycle          11 (RV: e6841ccd) -- valid_i: 0, yumi_i: 0
On Cycle          12 (RV: 68cd09d1) -- valid_i: 0, yumi_i: 0
On Cycle          13 (RV: 5d8363bb) -- valid_i: 0, yumi_i: 0
On Cycle          14 (RV: eff692df) -- valid_i: 0, yumi_i: 0
On Cycle          15 (RV: 3e8ed57d) -- valid_i: 0, yumi_i: 0
On Cycle          16 (RV: 2c402158) -- valid_i: 1, yumi_i: 1
On Cycle          17 (RV: cff5509f) -- valid_i: 0, yumi_i: 0
On Cycle          18 (RV: 4bac2f97) -- valid_i: 0, yumi_i: 0
On Cycle          19 (RV: 835da206) -- valid_i: 0, yumi_i: 0
On Cycle          20 (RV: 94a12e29) -- valid_i: 0, yumi_i: 0
On Cycle          21 (RV: 624b63c4) -- valid_i: 0, yumi_i: 1
On Cycle          22 (RV: ebb0f6d7) -- valid_i: 0, yumi_i: 0
On Cycle          23 (RV: aea6d45d) -- valid_i: 0, yumi_i: 0
On Cycle          24 (RV: 26c7134d) -- valid_i: 0, yumi_i: 0
On Cycle          25 (RV: 39bfc773) -- valid_i: 0, yumi_i: 0
On Cycle          26 (RV: bfd62a7f) -- valid_i: 0, yumi_i: 0
On Cycle          27 (RV: a703744e) -- valid_i: 1, yumi_i: 0
On Cycle          28 (RV: 5cdc65b9) -- valid_i: 0, yumi_i: 0
On Cycle          29 (RV: f05d64e0) -- valid_i: 1, yumi_i: 1
On Cycle          30 (RV: 9cd6c239) -- valid_i: 0, yumi_i: 0
On Cycle          31 (RV: 40fb4f81) -- valid_i: 0, yumi_i: 0
On Cycle          32 (RV: 18fb8331) -- valid_i: 0, yumi_i: 0
On Cycle          33 (RV: 47ebef8f) -- valid_i: 0, yumi_i: 0
On Cycle          34 (RV: 7f537dfe) -- valid_i: 1, yumi_i: 1
On Cycle          35 (RV: aed0f05d) -- valid_i: 0, yumi_i: 0
On Cycle          36 (RV: 878a880f) -- valid_i: 0, yumi_i: 0
On Cycle          37 (RV: 199bcb33) -- valid_i: 0, yumi_i: 0
On Cycle          38 (RV: 348ed569) -- valid_i: 0, yumi_i: 0
On Cycle          39 (RV: 2b0da556) -- valid_i: 1, yumi_i: 1
On Cycle          40 (RV: cd57529a) -- valid_i: 1, yumi_i: 1
On Cycle          41 (RV: 2e72295c) -- valid_i: 1, yumi_i: 1
On Cycle          42 (RV: 24e90749) -- valid_i: 0, yumi_i: 0
On Cycle          43 (RV: 69cd77d3) -- valid_i: 0, yumi_i: 0
On Cycle          44 (RV: 9d737a3a) -- valid_i: 1, yumi_i: 1
On Cycle          45 (RV: 6c74f5d8) -- valid_i: 1, yumi_i: 1
On Cycle          46 (RV: bc1c0e78) -- valid_i: 1, yumi_i: 1
On Cycle          47 (RV: 1ccb3539) -- valid_i: 0, yumi_i: 0
On Cycle          48 (RV: 92d06025) -- valid_i: 0, yumi_i: 0
On Cycle          49 (RV: 8496d609) -- valid_i: 0, yumi_i: 0
On Cycle          50 (RV: ab37a856) -- valid_i: 1, yumi_i: 1
On Cycle          51 (RV: 962c682c) -- valid_i: 1, yumi_i: 1
On Cycle          52 (RV: e99b1cd3) -- valid_i: 0, yumi_i: 0
On Cycle          53 (RV: 0d633f1a) -- valid_i: 1, yumi_i: 1
On Cycle          54 (RV: 005d5100) -- valid_i: 1, yumi_i: 1
On Cycle          55 (RV: 560d5fac) -- valid_i: 1, yumi_i: 1
On Cycle          56 (RV: f4588ee8) -- valid_i: 1, yumi_i: 1
On Cycle          57 (RV: b66a586c) -- valid_i: 1, yumi_i: 1
On Cycle          58 (RV: d03c40a0) -- valid_i: 1, yumi_i: 1
On Cycle          59 (RV: 0ecd251d) -- valid_i: 0, yumi_i: 0
On Cycle          60 (RV: 68c14fd1) -- valid_i: 0, yumi_i: 0
On Cycle          61 (RV: 006d0f00) -- valid_i: 1, yumi_i: 1
On Cycle          62 (RV: ed4d78da) -- valid_i: 1, yumi_i: 1
On Cycle          63 (RV: 6c1987d8) -- valid_i: 1, yumi_i: 1
On Cycle          64 (RV: 605dbbc0) -- valid_i: 1, yumi_i: 1
On Cycle          65 (RV: a6490c4c) -- valid_i: 1, yumi_i: 1
On Cycle          66 (RV: e8cfb0d1) -- valid_i: 0, yumi_i: 0
On Cycle          67 (RV: a8bb0c51) -- valid_i: 0, yumi_i: 0
On Cycle          68 (RV: a8e1ee51) -- valid_i: 0, yumi_i: 0
On Cycle          69 (RV: a2a4be45) -- valid_i: 0, yumi_i: 0
On Cycle          70 (RV: 598367b3) -- valid_i: 0, yumi_i: 0
On Cycle          71 (RV: bf21067e) -- valid_i: 1, yumi_i: 1
On Cycle          72 (RV: c049c680) -- valid_i: 1, yumi_i: 1
On Cycle          73 (RV: 7e5b53fc) -- valid_i: 1, yumi_i: 1
On Cycle          74 (RV: 2426d748) -- valid_i: 1, yumi_i: 1
On Cycle          75 (RV: c0ad8081) -- valid_i: 0, yumi_i: 0
On Cycle          76 (RV: 98b4dc31) -- valid_i: 0, yumi_i: 0
On Cycle          77 (RV: 53a8b5a7) -- valid_i: 0, yumi_i: 0
On Cycle          78 (RV: 41b1fd83) -- valid_i: 0, yumi_i: 0
On Cycle          79 (RV: 9fc1423f) -- valid_i: 0, yumi_i: 0
On Cycle          80 (RV: 00029100) -- valid_i: 1, yumi_i: 1
On Cycle          81 (RV: b2158c64) -- valid_i: 1, yumi_i: 1
On Cycle          82 (RV: 3f52937e) -- valid_i: 1, yumi_i: 1
On Cycle          83 (RV: 7887dff1) -- valid_i: 0, yumi_i: 0
On Cycle          84 (RV: 472dfb8e) -- valid_i: 1, yumi_i: 1
On Cycle          85 (RV: 4f234d9e) -- valid_i: 1, yumi_i: 1
On Cycle          86 (RV: 742819e8) -- valid_i: 1, yumi_i: 1
On Cycle          87 (RV: 24839b49) -- valid_i: 0, yumi_i: 0
On Cycle          88 (RV: 8569fa0a) -- valid_i: 1, yumi_i: 1
On Cycle          89 (RV: 2fb81b5f) -- valid_i: 0, yumi_i: 0
On Cycle          90 (RV: a8bfc851) -- valid_i: 0, yumi_i: 0
On Cycle          91 (RV: a4d98649) -- valid_i: 0, yumi_i: 0
On Cycle          92 (RV: 92fd2825) -- valid_i: 0, yumi_i: 0
On Cycle          93 (RV: b64ae66c) -- valid_i: 1, yumi_i: 1
On Cycle          94 (RV: ac509c58) -- valid_i: 1, yumi_i: 1
On Cycle          95 (RV: af5d6c5e) -- valid_i: 1, yumi_i: 1
On Cycle          96 (RV: 97dde22f) -- valid_i: 0, yumi_i: 0
On Cycle          97 (RV: c1cf5a83) -- valid_i: 0, yumi_i: 0
On Cycle          98 (RV: 13b75327) -- valid_i: 0, yumi_i: 0
On Cycle          99 (RV: 6a5ddbd4) -- valid_i: 1, yumi_i: 1
On Cycle         100 (RV: ca0e4494) -- valid_i: 1, yumi_i: 1
On Cycle         101 (RV: c961e492) -- valid_i: 1, yumi_i: 1
On Cycle         102 (RV: 1e32673c) -- valid_i: 1, yumi_i: 1
On Cycle         103 (RV: 23301b46) -- valid_i: 1, yumi_i: 1
On Cycle         104 (RV: b7b82a6f) -- valid_i: 0, yumi_i: 0
On Cycle         105 (RV: a0b3ae41) -- valid_i: 0, yumi_i: 0
On Cycle         106 (RV: 7bde15f7) -- valid_i: 0, yumi_i: 0
On Cycle         107 (RV: 8b7c3816) -- valid_i: 1, yumi_i: 1
On Cycle         108 (RV: 39092f72) -- valid_i: 1, yumi_i: 1
On Cycle         109 (RV: 5136a5a2) -- valid_i: 1, yumi_i: 1
On Cycle         110 (RV: 71f059e3) -- valid_i: 0, yumi_i: 0
On Cycle         111 (RV: c9490292) -- valid_i: 1, yumi_i: 1
On Cycle         112 (RV: e5ceb0cb) -- valid_i: 0, yumi_i: 0
On Cycle         113 (RV: 34097568) -- valid_i: 1, yumi_i: 1
On Cycle         114 (RV: 98b4ee31) -- valid_i: 0, yumi_i: 0
On Cycle         115 (RV: 65c803cb) -- valid_i: 0, yumi_i: 0
On Cycle         116 (RV: aad1c855) -- valid_i: 0, yumi_i: 0
On Cycle         117 (RV: 38a38971) -- valid_i: 0, yumi_i: 0
On Cycle         118 (RV: 2f49535e) -- valid_i: 1, yumi_i: 1
On Cycle         119 (RV: e6e186cd) -- valid_i: 0, yumi_i: 0
On Cycle         120 (RV: daf356b5) -- valid_i: 0, yumi_i: 0
On Cycle         121 (RV: 04410d08) -- valid_i: 1, yumi_i: 1
On Cycle         122 (RV: c118be82) -- valid_i: 1, yumi_i: 1
On Cycle         123 (RV: 9f80983f) -- valid_i: 0, yumi_i: 0
On Cycle         124 (RV: d807f2b0) -- valid_i: 1, yumi_i: 1
On Cycle         125 (RV: 560eefac) -- valid_i: 1, yumi_i: 1
On Cycle         126 (RV: 99183032) -- valid_i: 1, yumi_i: 1
On Cycle         127 (RV: 029f0505) -- valid_i: 0, yumi_i: 0
On Cycle         128 (RV: 2f73fb5e) -- valid_i: 1, yumi_i: 1
On Cycle         129 (RV: dc16d8b8) -- valid_i: 1, yumi_i: 1
On Cycle         130 (RV: 3ec2677d) -- valid_i: 0, yumi_i: 0
On Cycle         131 (RV: 8511580a) -- valid_i: 1, yumi_i: 1
On Cycle         132 (RV: c6878a8d) -- valid_i: 0, yumi_i: 0
On Cycle         133 (RV: 64eb39c9) -- valid_i: 0, yumi_i: 0
On Cycle         134 (RV: f8d3d8f1) -- valid_i: 0, yumi_i: 0
On Cycle         135 (RV: da12deb4) -- valid_i: 1, yumi_i: 1
On Cycle         136 (RV: 729a7fe5) -- valid_i: 0, yumi_i: 0
On Cycle         137 (RV: 1a133934) -- valid_i: 1, yumi_i: 1
On Cycle         138 (RV: 11c6c523) -- valid_i: 0, yumi_i: 0
On Cycle         139 (RV: 1691a32d) -- valid_i: 0, yumi_i: 0
On Cycle         140 (RV: 18e87131) -- valid_i: 0, yumi_i: 0
On Cycle         141 (RV: 2f36c55e) -- valid_i: 1, yumi_i: 1
On Cycle         142 (RV: 5a0f27b4) -- valid_i: 1, yumi_i: 1
On Cycle         143 (RV: 073a730e) -- valid_i: 1, yumi_i: 1
On Cycle         144 (RV: 322cc164) -- valid_i: 1, yumi_i: 1
On Cycle         145 (RV: 320a8b64) -- valid_i: 1, yumi_i: 1
On Cycle         146 (RV: 2416b948) -- valid_i: 1, yumi_i: 1
On Cycle         147 (RV: c544d88a) -- valid_i: 1, yumi_i: 1
On Cycle         148 (RV: 4dfe879b) -- valid_i: 0, yumi_i: 0
On Cycle         149 (RV: e6fbf4cd) -- valid_i: 0, yumi_i: 0
On Cycle         150 (RV: b5f8fa6b) -- valid_i: 0, yumi_i: 0
On Cycle         151 (RV: 55ff23ab) -- valid_i: 0, yumi_i: 0
On Cycle         152 (RV: f1eca2e3) -- valid_i: 0, yumi_i: 0
On Cycle         153 (RV: 5e9d2fbd) -- valid_i: 0, yumi_i: 0
On Cycle         154 (RV: ecff24d9) -- valid_i: 0, yumi_i: 0
On Cycle         155 (RV: e11a58c2) -- valid_i: 1, yumi_i: 1
On Cycle         156 (RV: f059ace0) -- valid_i: 1, yumi_i: 1
On Cycle         157 (RV: afd1265f) -- valid_i: 0, yumi_i: 0
On Cycle         158 (RV: 8edc361d) -- valid_i: 0, yumi_i: 0
On Cycle         159 (RV: c9b64c93) -- valid_i: 0, yumi_i: 0
On Cycle         160 (RV: 13180326) -- valid_i: 1, yumi_i: 1
On Cycle         161 (RV: 82b78605) -- valid_i: 0, yumi_i: 0
On Cycle         162 (RV: 84a8e809) -- valid_i: 0, yumi_i: 0
On Cycle         163 (RV: b62d846c) -- valid_i: 1, yumi_i: 1
On Cycle         164 (RV: b5c5c06b) -- valid_i: 0, yumi_i: 0
On Cycle         165 (RV: 5858bdb0) -- valid_i: 1, yumi_i: 1
On Cycle         166 (RV: fb9fb8f7) -- valid_i: 0, yumi_i: 0
On Cycle         167 (RV: 52a151a5) -- valid_i: 0, yumi_i: 0
On Cycle         168 (RV: abe8c057) -- valid_i: 0, yumi_i: 0
On Cycle         169 (RV: 3b11f376) -- valid_i: 1, yumi_i: 1
On Cycle         170 (RV: 2798e34f) -- valid_i: 0, yumi_i: 0
On Cycle         171 (RV: 5a45bdb4) -- valid_i: 1, yumi_i: 1
On Cycle         172 (RV: 8ecaa21d) -- valid_i: 0, yumi_i: 0
On Cycle         173 (RV: 43c11587) -- valid_i: 0, yumi_i: 0
On Cycle         174 (RV: 23466346) -- valid_i: 1, yumi_i: 1
On Cycle         175 (RV: 336d9366) -- valid_i: 1, yumi_i: 1
On Cycle         176 (RV: 4f14c19e) -- valid_i: 1, yumi_i: 1
On Cycle         177 (RV: 1fb0d13f) -- valid_i: 0, yumi_i: 0
On Cycle         178 (RV: 2a2ff554) -- valid_i: 1, yumi_i: 1
On Cycle         179 (RV: 2a565f54) -- valid_i: 1, yumi_i: 1
On Cycle         180 (RV: a62c344c) -- valid_i: 1, yumi_i: 1
On Cycle         181 (RV: 83449006) -- valid_i: 1, yumi_i: 1
On Cycle         182 (RV: 286f1350) -- valid_i: 1, yumi_i: 1
On Cycle         183 (RV: 16b46d2d) -- valid_i: 0, yumi_i: 0
On Cycle         184 (RV: c34ddc86) -- valid_i: 1, yumi_i: 1
On Cycle         185 (RV: 3564836a) -- valid_i: 1, yumi_i: 1
On Cycle         186 (RV: 5c2afdb8) -- valid_i: 1, yumi_i: 1
On Cycle         187 (RV: f7fecaef) -- valid_i: 0, yumi_i: 0
On Cycle         188 (RV: 506a57a0) -- valid_i: 1, yumi_i: 1
On Cycle         189 (RV: 1fa98f3f) -- valid_i: 0, yumi_i: 0
On Cycle         190 (RV: 84d4aa09) -- valid_i: 0, yumi_i: 0
On Cycle         191 (RV: d47b42a8) -- valid_i: 1, yumi_i: 1
On Cycle         192 (RV: aac1fa55) -- valid_i: 0, yumi_i: 0
On Cycle         193 (RV: 8f49661e) -- valid_i: 1, yumi_i: 1
On Cycle         194 (RV: dc22dcb8) -- valid_i: 1, yumi_i: 1
On Cycle         195 (RV: e70a62ce) -- valid_i: 1, yumi_i: 1
On Cycle         196 (RV: eb40e6d6) -- valid_i: 1, yumi_i: 1
On Cycle         197 (RV: 92c27025) -- valid_i: 0, yumi_i: 0
On Cycle         198 (RV: d4ce0aa9) -- valid_i: 0, yumi_i: 0
On Cycle         199 (RV: e7b374cf) -- valid_i: 0, yumi_i: 0
On Cycle         200 (RV: 1a9af535) -- valid_i: 0, yumi_i: 0
On Cycle         201 (RV: 2047dd40) -- valid_i: 1, yumi_i: 1
On Cycle         202 (RV: 5b0c73b6) -- valid_i: 1, yumi_i: 1
On Cycle         203 (RV: faf084f5) -- valid_i: 0, yumi_i: 0
On Cycle         204 (RV: ad27c45a) -- valid_i: 1, yumi_i: 1
On Cycle         205 (RV: 70ed97e1) -- valid_i: 0, yumi_i: 0
On Cycle         206 (RV: 12ce1125) -- valid_i: 0, yumi_i: 0
On Cycle         207 (RV: 93ba6027) -- valid_i: 0, yumi_i: 0
On Cycle         208 (RV: 227eb144) -- valid_i: 1, yumi_i: 1
On Cycle         209 (RV: bc944679) -- valid_i: 0, yumi_i: 0
On Cycle         210 (RV: cfb89e9f) -- valid_i: 0, yumi_i: 0
On Cycle         211 (RV: 545493a8) -- valid_i: 1, yumi_i: 1
On Cycle         212 (RV: 64d2d3c9) -- valid_i: 0, yumi_i: 0
On Cycle         213 (RV: 42955d85) -- valid_i: 0, yumi_i: 0
On Cycle         214 (RV: 42e39d85) -- valid_i: 0, yumi_i: 0
On Cycle         215 (RV: b9d96873) -- valid_i: 0, yumi_i: 0
On Cycle         216 (RV: 440f0988) -- valid_i: 1, yumi_i: 1
On Cycle         217 (RV: 4b2f0596) -- valid_i: 1, yumi_i: 1
On Cycle         218 (RV: 9a544234) -- valid_i: 1, yumi_i: 1
On Cycle         219 (RV: 1e85ed3d) -- valid_i: 0, yumi_i: 0
On Cycle         220 (RV: 28b1f151) -- valid_i: 0, yumi_i: 0
On Cycle         221 (RV: 8db0281b) -- valid_i: 0, yumi_i: 0
On Cycle         222 (RV: 8e39901c) -- valid_i: 1, yumi_i: 1
On Cycle         223 (RV: 5ec5ebbd) -- valid_i: 0, yumi_i: 0
On Cycle         224 (RV: da69e2b4) -- valid_i: 1, yumi_i: 1
On Cycle         225 (RV: 2764754e) -- valid_i: 1, yumi_i: 1
On Cycle         226 (RV: 17e83f2f) -- valid_i: 0, yumi_i: 0
On Cycle         227 (RV: 2cfff159) -- valid_i: 0, yumi_i: 0
On Cycle         228 (RV: f670fcec) -- valid_i: 1, yumi_i: 1
On Cycle         229 (RV: 0f40551e) -- valid_i: 1, yumi_i: 1
On Cycle         230 (RV: ce96ca9d) -- valid_i: 0, yumi_i: 0
On Cycle         231 (RV: e02148c0) -- valid_i: 1, yumi_i: 1
On Cycle         232 (RV: 71a919e3) -- valid_i: 0, yumi_i: 0
On Cycle         233 (RV: b24cf664) -- valid_i: 1, yumi_i: 1
On Cycle         234 (RV: a5d9704b) -- valid_i: 0, yumi_i: 0
On Cycle         235 (RV: 48e9ff91) -- valid_i: 0, yumi_i: 0
On Cycle         236 (RV: 4277d784) -- valid_i: 1, yumi_i: 1
On Cycle         237 (RV: 24d44749) -- valid_i: 0, yumi_i: 0
On Cycle         238 (RV: 89de2c13) -- valid_i: 0, yumi_i: 0
On Cycle         239 (RV: d9f8e0b3) -- valid_i: 0, yumi_i: 0
On Cycle         240 (RV: 0e62911c) -- valid_i: 1, yumi_i: 1
On Cycle         241 (RV: 144ced28) -- valid_i: 1, yumi_i: 1
On Cycle         242 (RV: 1568bb2a) -- valid_i: 1, yumi_i: 1
On Cycle         243 (RV: 2e97795d) -- valid_i: 0, yumi_i: 0
On Cycle         244 (RV: 776a61ee) -- valid_i: 1, yumi_i: 1
On Cycle         245 (RV: 66065bcc) -- valid_i: 1, yumi_i: 1
On Cycle         246 (RV: 5d8e95bb) -- valid_i: 0, yumi_i: 0
On Cycle         247 (RV: bc461478) -- valid_i: 1, yumi_i: 1
On Cycle         248 (RV: 652825ca) -- valid_i: 1, yumi_i: 1
On Cycle         249 (RV: 2e94b75d) -- valid_i: 0, yumi_i: 0
On Cycle         250 (RV: 8f32fa1e) -- valid_i: 1, yumi_i: 1
On Cycle         251 (RV: 3b07bd76) -- valid_i: 1, yumi_i: 1
On Cycle         252 (RV: 65a879cb) -- valid_i: 0, yumi_i: 0
On Cycle         253 (RV: 6dfcf1db) -- valid_i: 0, yumi_i: 0
On Cycle         254 (RV: da42e4b4) -- valid_i: 1, yumi_i: 1
On Cycle         255 (RV: 106e4320) -- valid_i: 1, yumi_i: 1
On Cycle         256 (RV: 0207bb04) -- valid_i: 1, yumi_i: 1
On Cycle         257 (RV: bca0b279) -- valid_i: 0, yumi_i: 0
On Cycle         258 (RV: e6b110cd) -- valid_i: 0, yumi_i: 0
On Cycle         259 (RV: c9662c92) -- valid_i: 1, yumi_i: 1
On Cycle         260 (RV: a2ce0045) -- valid_i: 0, yumi_i: 0
On Cycle         261 (RV: d4ea6aa9) -- valid_i: 0, yumi_i: 0
On Cycle         262 (RV: cf31fc9e) -- valid_i: 1, yumi_i: 1
On Cycle         263 (RV: 6ec2cbdd) -- valid_i: 0, yumi_i: 0
On Cycle         264 (RV: 600b2dc0) -- valid_i: 1, yumi_i: 1
On Cycle         265 (RV: a5b9424b) -- valid_i: 0, yumi_i: 0
On Cycle         266 (RV: 5db7e1bb) -- valid_i: 0, yumi_i: 0
On Cycle         267 (RV: 408a2981) -- valid_i: 0, yumi_i: 0
On Cycle         268 (RV: d932d8b2) -- valid_i: 1, yumi_i: 1
On Cycle         269 (RV: 598d27b3) -- valid_i: 0, yumi_i: 0
On Cycle         270 (RV: 05aeb90b) -- valid_i: 0, yumi_i: 0
On Cycle         271 (RV: 24011148) -- valid_i: 1, yumi_i: 1
On Cycle         272 (RV: f0b860e1) -- valid_i: 0, yumi_i: 0
On Cycle         273 (RV: 7e72c5fc) -- valid_i: 1, yumi_i: 1
On Cycle         274 (RV: d7f844af) -- valid_i: 0, yumi_i: 0
On Cycle         275 (RV: d0770ea0) -- valid_i: 1, yumi_i: 1
On Cycle         276 (RV: 076adf0e) -- valid_i: 1, yumi_i: 1
On Cycle         277 (RV: 3aaf8775) -- valid_i: 0, yumi_i: 0
On Cycle         278 (RV: 6ca7ffd9) -- valid_i: 0, yumi_i: 0
On Cycle         279 (RV: 86d26e0d) -- valid_i: 0, yumi_i: 0
On Cycle         280 (RV: 13913127) -- valid_i: 0, yumi_i: 0
On Cycle         281 (RV: 3a2d9974) -- valid_i: 1, yumi_i: 1
On Cycle         282 (RV: 7e7f21fc) -- valid_i: 1, yumi_i: 1
On Cycle         283 (RV: dfdc3ebf) -- valid_i: 0, yumi_i: 0
On Cycle         284 (RV: afc5f25f) -- valid_i: 0, yumi_i: 0
On Cycle         285 (RV: c0a7e881) -- valid_i: 0, yumi_i: 0
On Cycle         286 (RV: b428aa68) -- valid_i: 1, yumi_i: 1
On Cycle         287 (RV: fd4c48fa) -- valid_i: 1, yumi_i: 1
On Cycle         288 (RV: fd9380fb) -- valid_i: 0, yumi_i: 0
On Cycle         289 (RV: 0c962119) -- valid_i: 0, yumi_i: 0
On Cycle         290 (RV: d33554a6) -- valid_i: 1, yumi_i: 1
On Cycle         291 (RV: 29951b53) -- valid_i: 0, yumi_i: 0
On Cycle         292 (RV: f7cff6ef) -- valid_i: 0, yumi_i: 0
On Cycle         293 (RV: f6d8aeed) -- valid_i: 0, yumi_i: 0
On Cycle         294 (RV: 58d79db1) -- valid_i: 0, yumi_i: 0
On Cycle         295 (RV: b26ffe64) -- valid_i: 1, yumi_i: 1
On Cycle         296 (RV: 90b93021) -- valid_i: 0, yumi_i: 0
On Cycle         297 (RV: 7b24bdf6) -- valid_i: 1, yumi_i: 1
On Cycle         298 (RV: 345fbf68) -- valid_i: 1, yumi_i: 1
On Cycle         299 (RV: 8a290014) -- valid_i: 1, yumi_i: 1
On Cycle         300 (RV: b7d0ca6f) -- valid_i: 0, yumi_i: 0
On Cycle         301 (RV: 9530362a) -- valid_i: 0, yumi_i: 0
On Cycle         302 (RV: 1f77b73e) -- valid_i: 0, yumi_i: 0
On Cycle         303 (RV: fbaaeef7) -- valid_i: 0, yumi_i: 0
On Cycle         304 (RV: 23781f46) -- valid_i: 0, yumi_i: 0
On Cycle         305 (RV: 9e9dca3d) -- valid_i: 0, yumi_i: 0
On Cycle         306 (RV: d01f40a0) -- valid_i: 1, yumi_i: 1
On Cycle         307 (RV: 7d4b53fa) -- valid_i: 0, yumi_i: 0
On Cycle         308 (RV: 7a4c4df4) -- valid_i: 0, yumi_i: 1
On Cycle         309 (RV: 19a8e333) -- valid_i: 0, yumi_i: 0
On Cycle         310 (RV: 0067d700) -- valid_i: 1, yumi_i: 0
On Cycle         311 (RV: 6e567bdc) -- valid_i: 1, yumi_i: 0
On Cycle         312 (RV: 38422d70) -- valid_i: 1, yumi_i: 1
On Cycle         313 (RV: 9491aa29) -- valid_i: 0, yumi_i: 0
On Cycle         314 (RV: 07f0b90f) -- valid_i: 0, yumi_i: 0
On Cycle         315 (RV: 4b5b7196) -- valid_i: 0, yumi_i: 0
On Cycle         316 (RV: 6b825dd7) -- valid_i: 0, yumi_i: 0
On Cycle         317 (RV: 11c91123) -- valid_i: 0, yumi_i: 0
On Cycle         318 (RV: 8322de06) -- valid_i: 0, yumi_i: 0
On Cycle         319 (RV: a538004a) -- valid_i: 0, yumi_i: 0
On Cycle         320 (RV: 2505394a) -- valid_i: 0, yumi_i: 0
On Cycle         321 (RV: 20dcbf41) -- valid_i: 0, yumi_i: 0
On Cycle         322 (RV: 442d0788) -- valid_i: 1, yumi_i: 1
On Cycle         323 (RV: e6e4b8cd) -- valid_i: 0, yumi_i: 0
On Cycle         324 (RV: 38eedd71) -- valid_i: 0, yumi_i: 0
On Cycle         325 (RV: 94232228) -- valid_i: 1, yumi_i: 1
On Cycle         326 (RV: 89bfac13) -- valid_i: 0, yumi_i: 0
On Cycle         327 (RV: b600e26c) -- valid_i: 0, yumi_i: 1
Simulation time is              3410000
[0;32m    ____  ___   __________[0m
[0;32m   / __ \/   | / ___/ ___/[0m
[0;32m  / /_/ / /| | \__ \__  [0m
[0;32m / ____/ ___ |___/ /__/ / [0m
[0;32m/_/   /_/  |_/____/____/  [0m

Simulation Succeeded!
Current System Time is: 09:50:57 PM--02/15/2023
